Deskriptive Statistik und Data Cleaning | EDV2
…
Da wir eine Reihe von Gruppierungsvariablen haben, könnte der erste Impuls sein, sich die Variablen nach diesen Gruppen aufgeteilt darstellen zu lassen, um mögliche Gruppenunterschiede zu verdeutlichen.

Auch hier können wir uns Tabellen erstellen:

df %>% 
  group_by(smoker, group, sex) %>% 
  summarise(across(where(is.numeric),
                   .fns = list(mean = ~mean(.),
                               sd = ~sd(.),
                               n = ~n()))) %>% 
  mutate(across(where(is.numeric),
                ~round(.,2)))

## # A tibble: 28 x 9
## # Groups:   smoker, group [14]
##    smoker group sex   IQ_mean IQ_sd  IQ_n age_mean
##    <lgl>  <chr> <chr>   <dbl> <dbl> <dbl>    <dbl>
##  1 FALSE  g_1   f        99.0  13.9   373     31.8
##  2 FALSE  g_1   m        98.4  13.9   361     30.6
##  3 FALSE  g_2   f        98.9  19.3   472     52.0
##  4 FALSE  g_2   m        97.4  19.0   441     53.0
##  5 FALSE  g_3   f       102.   14.0   609     42.5
##  6 FALSE  g_3   m       102.   13.7   579     41.7
##  7 FALSE  g_4   f       101.   13.8   384     40.8
##  8 FALSE  g_4   m        99.3  13.1   394     42.0
##  9 FALSE  g_6   f        99.3  14.6   430     34.8
## 10 FALSE  g_6   m       101.   15.4   442     35.9
##    age_sd age_n
##     <dbl> <dbl>
##  1   17.3   373
##  2   15.3   361
##  3   27.9   472
##  4   27.7   441
##  5   18.2   609
##  6   17.4   579
##  7   19.3   384
##  8   20.3   394
##  9   14.6   430
## 10   14.9   442
## # … with 18 more rows
…
