Einfache lineare Zusammenhänge | EDV2
…
Im broom-Paket gibt es außerdem die augment-Funktion, die uns den zum Fitten genutzten Datensatz mit einer Reihe von Zusatzinfos ausgibt.

broom::augment(fitZ)

## # A tibble: 50 x 8
##    hawie_wahr_log[,1] hawie_iq[,1]  .fitted  .resid
##                 <dbl>        <dbl>    <dbl>   <dbl>
##  1            -0.316       -0.234  -0.0327  -0.283 
##  2             3.12         1.84    0.257    2.86  
##  3             1.40        -0.456  -0.0637   1.46  
##  4             0.0275       0.0622  0.00868  0.0188
##  5             1.06        -0.160  -0.0223   1.08  
##  6             0.371       -0.0860 -0.0120   0.383 
##  7            -1.00        -0.0119 -0.00165 -1.00  
##  8             0.371        0.803   0.112    0.259 
##  9             3.12         0.0622  0.00868  3.11  
## 10            -1.00        -0.308  -0.0430  -0.960 
##      .hat .sigma    .cooksd .std.resid
##     <dbl>  <dbl>      <dbl>      <dbl>
##  1 0.0211  1.01  0.000883      -0.286 
##  2 0.0892  0.912 0.439          3.00  
##  3 0.0243  0.988 0.0273         1.48  
##  4 0.0201  1.01  0.00000369     0.0190
##  5 0.0205  0.998 0.0125         1.09  
##  6 0.0202  1.01  0.00154        0.387 
##  7 0.0200  1.00  0.0104        -1.01  
##  8 0.0332  1.01  0.00119        0.263 
##  9 0.0201  0.901 0.101          3.14  
## 10 0.0219  1.00  0.0105        -0.970 
## # … with 40 more rows
…
